<svg xmlns="http://www.w3.org/2000/svg" width="479" height="61" viewBox="0 0 479 61">
  <defs>
    <style>
      .cls-1 {
        font-size: 55px;
        fill: #fff;
        text-anchor: middle;
        font-family: "Trajan Pro";
        font-weight: 700;
      }
    </style>
  </defs>
  <text id="Bank_of_Demo" data-name="Bank of Demo" class="cls-1" x="243" y="50"><tspan x="243">Bank of Demo</tspan></text>
</svg>
